Multiplier_Variations/Array_Multiplier/Array_Multiplier/Array_Multiplier.sim/sim_1/impl/func/xsim/simulate.log
Vivado Simulator 2018.2
Time resolution is 1 ps
Time | A      | B      | A*B (ref) | Result (HW) | Match?
--------------------------------------------------------
                5000 |   303379748 | -1064739199 | -323020309878341852     | -323020309878341852
               10000 | -2071669239 | -1309649309 | 2713160187332905851     | 2713160187332905851
               15000 |   112818957 |  1189058957 | 134148391340247849     | 134148391340247849
               20000 | -1295874971 | -1992863214 | 2582501559649216794     | 2582501559649216794
               25000 |    15983361 |   114806029 | 1834986206483469     | 1834986206483469
               30000 |   992211318 |   512609597 | 508617043858818846     | 508617043858818846
               35000 |  1993627629 |  1177417612 | 2347332282154401948     | 2347332282154401948
               40000 |  2097015289 |  -482925370 | -1012701884335981930     | -1012701884335981930
               45000 |  -487095099 |  -720121174 | 350767494541526226     | 350767494541526226
               50000 |  1924134885 | -1143836041 | -2200894829208390285     | -2200894829208390285
               55000 | -1993157102 |  1206705039 | -2405152718502036978     | -2405152718502036978
               60000 |  2033215986 |  -411658546 | -836990736500716356     | -836990736500716356
               65000 |  -201295128 |  -490058043 | 98646296493114504     | 98646296493114504
               70000 |   777537884 |  -561108803 | -436283351378392852     | -436283351378392852
               75000 | -1767155667 | -1297668507 | 2293182256032479169     | 2293182256032479169
               80000 | -1309711773 |    91457290 | -119782689439675170     | -119782689439675170
               85000 | -1069866368 |   274997536 | -294210615049269248     | -294210615049269248
               90000 |  1433945514 |  -825439075 | -1183634658676559550     | -1183634658676559550
               95000 |  -887079274 | -1987856365 | 1763386181080479010     | 1763386181080479010
              100000 | -2034485235 | -1448618413 | 2947192772397632055     | 2947192772397632055
              105000 |   899669355 |  -358208811 | -322269489947686905     | -322269489947686905
              110000 | -2129180158 |  -682213714 | 1452555903364286812     | 1452555903364286812
              115000 |   251652381 |  -406490417 | -102294281291732877     | -102294281291732877
              120000 |   293882147 |    84501770 | 24833561592900190     | 24833561592900190
              125000 |  -445445430 | -1640936388 | 730947614955306840     | 730947614955306840
              130000 |  2036907506 |  1160667530 | 2364172403827480180     | 2364172403827480180
              135000 |   549761857 |  -330615592 | -181759841811074344     | -181759841811074344
              140000 |  1008792440 |  -997584247 | -1006355446636692680     | -1006355446636692680
              145000 |  1975848427 |  1526883766 | 3016890887262936082     | 3016890887262936082
              150000 |  1665923526 |  1460999086 | 2433912748831897236     | 2433912748831897236
              155000 |  -562756932 |   353361194 | -198856461423296808     | -198856461423296808
              160000 | -2049467893 | -1198014863 | 2455292997055293659     | 2455292997055293659
              165000 |  1123172741 |   670192975 | 752742480729694475     | 752742480729694475
              170000 | -1647550405 |   486945594 | -802267410607665570     | -802267410607665570
              175000 | -1088212354 |   178932501 | -194716558120317354     | -194716558120317354
              180000 |  2027527153 |  1822182361 | 3694524214645148233     | 3694524214645148233
              185000 |   824379234 |   641071948 | 528486401431127832     | 528486401431127832
              190000 |  1335973279 |  1203347855 | 1607640579621966545     | 1607640579621966545
              195000 |  2087561720 |  -607297353 | -1267770706780127160     | -1267770706780127160
              200000 |  -809216353 | -1367501732 | 1106604764290223396     | 1106604764290223396
              205000 | -1379155877 |  1155413897 | -1593495866415022669     | -1593495866415022669
              210000 | -1532087735 |  -400343344 | 613361127131285840     | 613361127131285840
              215000 |  -335626025 | -1463288751 | 491117786925344775     | 491117786925344775
              220000 |  1260466070 |   102596364 | 129319235727369480     | 129319235727369480
              225000 |  -517157182 |  1683484104 | -870625895166434928     | -870625895166434928
              230000 | -1149085065 |   519236925 | -596647395714025125     | -596647395714025125
              235000 |   151837458 | -1090191234 | -165531865704443172     | -165531865704443172
              240000 |   921010541 |   484042553 | 445808293605551173     | 445808293605551173
              245000 |   265457439 |  -370411821 | -98328573377986419     | -98328573377986419
              250000 |  1121529733 | -1139505032 | -1277988774291116456     | -1277988774291116456
              255000 |   769284443 |   613108553 | 471654871693140979     | 471654871693140979
              260000 | -1611485633 |   353152810 | -569100679568578730     | -569100679568578730
              265000 |   739599192 | -1019266938 | -753849003777114096     | -753849003777114096
              270000 |  -954594162 |  -835718500 | 797772001175397000     | 797772001175397000
              275000 |  2100664826 | -1820476378 | -3824210693828480228     | -3824210693828480228
              280000 |   966137715 |  -779373405 | -752982040638469575     | -752982040638469575
              285000 | -1751537617 |  -640511309 | 1121879651827410653     | 1121879651827410653
              290000 | -1344776609 |   573115716 | -770712609127087044     | -770712609127087044
              295000 |  2079915511 |  -442812725 | -921013055195677475     | -921013055195677475
              300000 |  -217507098 |   757652314 | -164794756111124772     | -164794756111124772
              305000 |   349159721 |  -159194387 | -55584267749686027     | -55584267749686027
              310000 |  -313299750 | -1298155931 | 406711928643317250     | 406711928643317250
              315000 |  -628432203 |  -272722721 | 171387740366184363     | 171387740366184363
              320000 |  1022433657 |   573701956 | 586572188901133092     | 586572188901133092
              325000 |  -395047728 |   352914218 | -139417959999796704     | -139417959999796704
              330000 |  1442229675 |   124768014 | 179944132281615450     | 179944132281615450
              335000 |  1851633116 |  -849429350 | -1572831514162354600     | -1572831514162354600
              340000 |   -18910467 |  -504298813 | 9536526061375671     | 9536526061375671
              345000 |   722398550 |   662301006 | 478445286397941300     | 478445286397941300
              350000 | -1277594009 | -2060372982 | 2632320178108664838     | 2632320178108664838
              355000 |  1534048694 | -1676768712 | -2572244852783662128     | -2572244852783662128
              360000 |  1020364665 |  -601111368 | -613352799637011720     | -613352799637011720
              365000 |  1249165204 |  1237736851 | 1546137805977732604     | 1546137805977732604
              370000 | -2109789180 | -1397241255 | 2947884481648620900     | 2947884481648620900
              375000 |  1842047451 | -1493377459 | -2750872141731807009     | -2750872141731807009
              380000 |  1823520729 | -1230756243 | -2244309521456661147     | -2244309521456661147
              385000 | -1153047946 |  1698384330 | -1958318563225086180     | -1958318563225086180
              390000 |  1528245686 |  1251176853 | 1912105628020306158     | 1912105628020306158
              395000 | -1559815610 |    41196292 | -64258619335718120     | -64258619335718120
              400000 |  2077385207 |   882378601 | 1833040252690755407     | 1833040252690755407
              405000 |  -630277452 |  1140952456 | -719116606820822112     | -719116606820822112
              410000 |   343726376 | -1768946643 | -608033618935755768     | -608033618935755768
              415000 |  -473616185 | -1755538386 | 831451392998377410     | 831451392998377410
              420000 | -2072517624 |   239158556 | -495660322240390944     | -495660322240390944
              425000 |   -22567171 |   345900841 | -7806003427890811     | -7806003427890811
              430000 | -1908961252 |  1127573382 | -2152493895024594264     | -2152493895024594264
              435000 |  -315356966 | -1632123331 | 514701461801973746     | 514701461801973746
              440000 |   860792678 | -1202338704 | -1034964352879209312     | -1034964352879209312
              445000 | -1175124877 |  1567726010 | -1842273834670950770     | -1842273834670950770
              450000 |   792376158 |  2101836282 | 1665444957876164556     | 1665444957876164556
              455000 |  1787692501 | -1926957542 | -3444807547578792542     | -3444807547578792542
              460000 |  -588250951 |   461857079 | -271687865947832129     | -271687865947832129
              465000 |  1260861334 |  1614356928 | 2035480229790221952     | 2035480229790221952
              470000 |   321232678 |  -616162634 | -197931573003353852     | -197931573003353852
              475000 |  1050248061 |  1851723740 | 1944769267442668140     | 1944769267442668140
              480000 |  1130452870 |  1006894968 | 1138247306364158160     | 1138247306364158160
              485000 |  1062902654 |  -309493541 | -328961506124757814     | -328961506124757814
              490000 |  -406604081 |  1022176121 | -415620982299349801     | -415620982299349801
              495000 |   -47651590 | -1329795487 | 63366869330374330     | 63366869330374330
              500000 |   194251031 |  -789219167 | -153306636874711177     | -153306636874711177
              505000 |  1131909510 | -1469868464 | -1663758092850692640     | -1663758092850692640
              510000 |  2056018421 | -1699444683 | -3494089573718505543     | -3494089573718505543
              515000 | -1801811415 |  1622242753 | -2922975510256425495     | -2922975510256425495
              520000 |  -488278843 |  -872303464 | 425927326146812152     | 425927326146812152
              525000 |   632453963 | -1181990285 | -747554439975749455     | -747554439975749455
              530000 |  -165484820 |  -984607094 | 162937527721313080     | 162937527721313080
              535000 |   660132174 |  -733249368 | -484041499381966032     | -484041499381966032
              540000 |  1419705769 |  -792032095 | -1124452534504656055     | -1124452534504656055
              545000 |   118208782 |  -214669594 | -25375831239174508     | -25375831239174508
              550000 |  -808009569 |   355448106 | -287205470930926314     | -287205470930926314
              555000 |   358227242 |  -961153907 | -344311513242134494     | -344311513242134494
              560000 |  1333133214 | -1670519240 | -2227024683470037360     | -2227024683470037360
              565000 | -1127241607 |  1684333512 | -1898650814790833784     | -1898650814790833784
              570000 |  1696810442 |   167723283 | 284594617960921086     | 284594617960921086
              575000 |   899729771 |  -474501433 | -426923065652261843     | -426923065652261843
              580000 |  1527504310 |  1560649146 | 2383898296912819260     | 2383898296912819260
              585000 |  1645652932 |  1552061881 | 2554155185113085092     | 2554155185113085092
              590000 |  1227871122 |  -635004236 | -779703363732072792     | -779703363732072792
              595000 |  1069235071 | -1020030842 | -1090652749768059782     | -1090652749768059782
              600000 |  2104358394 |  -114846478 | -241678150000636332     | -241678150000636332
              605000 |   423960882 |  -556900675 | -236104101359395350     | -236104101359395350
              610000 |  1112526212 |  -230054684 | -255941866143377008     | -255941866143377008
              615000 |  1698942922 |  1420327337 | 2413055076119258714     | 2413055076119258714
              620000 |  -795498335 |  1197844878 | -952883606037278130     | -952883606037278130
              625000 |   -41194757 | -2048582133 | 84390843163476681     | 84390843163476681
              630000 |  -142438161 |  1690844617 | -240840797782229337     | -240840797782229337
              635000 |   459334966 | -1162786699 | -534108588850417234     | -534108588850417234
              640000 |  -941074801 |   902676331 | -849485948563235131     | -849485948563235131
              645000 |  1147529096 |  -683690834 | -784555124683506064     | -784555124683506064
              650000 |  1307804059 |  1228817810 | 1607052919689490790     | 1607052919689490790
              655000 |   340057896 | -1769676755 | -601792553905407480     | -601792553905407480
              660000 |   632774475 |  -513167166 | -324719084052887850     | -324719084052887850
              665000 | -1893927394 |   112395533 | -212868978911931002     | -212868978911931002
              670000 |  1987706348 |   201563416 | 400648881507764768     | 400648881507764768
              675000 |  1756240849 | -1015669626 | -1783760486269752474     | -1783760486269752474
              680000 | -1598020543 | -1648401349 | 2634179218810912507     | 2634179218810912507
              685000 |  1816459736 |   703588691 | 1278040527906445576     | 1278040527906445576
              690000 | -1424399786 | -1381227941 | 1967420783577620626     | 1967420783577620626
              695000 |  -244909342 | -2106334716 | 515861049327316872     | 515861049327316872
              700000 |   967574387 |  -330255144 | -319546418509396728     | -319546418509396728
              705000 |   155077906 |  -603765576 | -93630701240963856     | -93630701240963856
              710000 | -1669262791 |  -225986843 | 377231428275458813     | 377231428275458813
              715000 |  -792339295 |   361303851 | -286275238582125045     | -286275238582125045
              720000 |  1083202945 |  1679525320 | 1819266772826067400     | 1819266772826067400
              725000 |   330650919 |  1356200353 | 448428893067574407     | 448428893067574407
              730000 | -1886622177 | -2111686140 | 3983953902587526780     | 3983953902587526780
              735000 |   741155672 |  -883130218 | -654536970185296496     | -654536970185296496
              740000 |   175018772 | -1994804206 | -349128182514555032     | -349128182514555032
              745000 |  -886935402 |  -659758415 | 585163095030907830     | 585163095030907830
              750000 |   717411669 |  -154956051 | -111167279169559119     | -111167279169559119
              755000 |   361442091 |  2058427381 | 744002296760293671     | 744002296760293671
              760000 |  1454637997 | -1816059353 | -2641708939681035941     | -2641708939681035941
              765000 |  1112145796 |  -743906137 | -827332082883150052     | -827332082883150052
              770000 |  -203970841 |  -588279623 | 119991889446472943     | 119991889446472943
              775000 | -1529194935 |  1843772379 | -2819487383259700365     | -2819487383259700365
              780000 |  1689915337 |   679719249 | 1148667983739221913     | 1148667983739221913
              785000 |  -792961375 |   356965674 | -283059991682841750     | -283059991682841750
              790000 |  2099922426 | -1561976763 | -3280030033514587038     | -3280030033514587038
              795000 |  1101071747 | -1099611524 | -1210751181752012428     | -1210751181752012428
              800000 | -1186589582 |   -11584258 | 13745759858000156     | 13745759858000156
              805000 | -1269435800 | -1210078609 | 1536117107078802200     | 1536117107078802200
              810000 |  1128664454 |  2015568368 | 2274900371568391072     | 2274900371568391072
              815000 |   477206328 |   544641344 | 259906295847224832     | 259906295847224832
              820000 | -1811319256 |  2064493046 | -3739456008097893776     | -3739456008097893776
              825000 |  -490792251 |  1613246912 | -791769083359278912     | -791769083359278912
              830000 |   979525492 |   484340025 | 474423401283417300     | 474423401283417300
              835000 |  -664114512 |   505186108 | -335501425583599296     | -335501425583599296
              840000 |   354521898 |   824496994 | 292302239208174612     | 292302239208174612
              845000 |   183252245 |  -256815391 | -47061996951302795     | -47061996951302795
              850000 |   199400727 | -1584665021 | -315983357238870267     | -315983357238870267
              855000 |  1689641929 | -1019870074 | -1723215239162732746     | -1723215239162732746
              860000 |   311937829 |  1626774977 | 507452654596904933     | 507452654596904933
              865000 |  -962747763 | -1385700774 | 1334080320355868562     | 1334080320355868562
              870000 |    64366343 |   375094060 | 24143432923222580     | 24143432923222580
              875000 |   101342476 | -1196562831 | -121262639983109556     | -121262639983109556
              880000 | -1646166981 |  1533076918 | -2523700601744844558     | -2523700601744844558
              885000 |   -69221641 |  -820719970 | 56811583124870770     | 56811583124870770
              890000 | -1367844772 |   716765013 | -980423275784562036     | -980423275784562036
              895000 | -1876280800 |  -804580704 | 1509619326965683200     | 1509619326965683200
              900000 |   962595186 |  -633500492 | -609804523927831512     | -609804523927831512
              905000 |  1854600669 | -2032340979 | -3769180939289514951     | -3769180939289514951
              910000 |   632330571 | -1127464327 | -712930161674040717     | -712930161674040717
              915000 |  -815539554 |   -17799939 | 14516554313287206     | 14516554313287206
              920000 | -1109339525 |  1206023055 | -1337889042972748875     | -1337889042972748875
              925000 | -2117887485 |  1908484579 | -4041955605179593815     | -4041955605179593815
              930000 |   244466461 |  1492729265 | 364922240645681165     | 364922240645681165
              935000 |   571580228 |  -895697771 | -511963136167271788     | -511963136167271788
              940000 |  -266521376 |  -157189907 | 41894470306952032     | 41894470306952032
              945000 |   695866706 |  2082364408 | 1449048061286600048     | 1449048061286600048
              950000 |  1188870029 | -1453341614 | -1727834286783086806     | -1727834286783086806
              955000 |  1108993924 |   594214214 | 658979952880435736     | 658979952880435736
              960000 |  -969239924 |  1212710288 | -1175407227375138112     | -1175407227375138112
              965000 |   199934231 |   892166506 | 178374624301066886     | 178374624301066886
              970000 |  1115379588 |  -715408214 | -797951718983135832     | -797951718983135832
              975000 |  1047465852 | -1336802720 | -1400255200060717440     | -1400255200060717440
              980000 |  1565150650 |  -979279733 | -1532720310636776450     | -1532720310636776450
              985000 |  -753008986 | -1836900827 | 1383202829121831422     | 1383202829121831422
              990000 |   419791666 |  -788200286 | -330879911201616476     | -330879911201616476
              995000 | -1534100407 | -1973112812 | 3026953167946114484     | 3026953167946114484
             1000000 | -1630945219 |   636617547 | -1038288344611157793     | -1038288344611157793
$finish called at time : 1 us : File "C:/Users/User/Desktop/STM/Lab3/Array_Multiplier/array_mul_tb_2.v" Line 39
