Multiplier_Variations/Array_Multiplier/Array_Multiplier/Array_Multiplier.sim/sim_1/behav/xsim/simulate.log
Vivado Simulator 2018.2
Time resolution is 1 ps
Time | A      | B      | A*B (ref) | Result (HW) | Match?
--------------------------------------------------------
                5000 |   4 |   1 |      4     |      4
               10000 |   9 |   3 |     27     |     27
               15000 |  13 |  13 |    169     |    169
               20000 |   5 | -14 |    -70     |    -70
               25000 |   1 |  13 |     13     |     13
               30000 | -10 |  -3 |     30     |     30
               35000 |  13 |  12 |    156     |    156
               40000 |  -7 |   6 |    -42     |    -42
               45000 |   5 |  10 |     50     |     50
               50000 |   5 |  -9 |    -45     |    -45
               55000 | -14 |  15 |   -210     |   -210
               60000 | -14 |  14 |   -196     |   -196
               65000 |   8 |   5 |     40     |     40
               70000 |  -4 |  -3 |     12     |     12
               75000 |  13 |   5 |     65     |     65
               80000 |   3 |  10 |     30     |     30
               85000 |   0 |   0 |      0     |      0
               90000 |  10 |  -3 |    -30     |    -30
               95000 | -10 | -13 |    130     |    130
              100000 |  13 | -13 |   -169     |   -169
              105000 |  11 | -11 |   -121     |   -121
              110000 |   2 |  14 |     28     |     28
              115000 |  -3 |  15 |    -45     |    -45
              120000 |   3 |  10 |     30     |     30
              125000 |  10 |  -4 |    -40     |    -40
              130000 | -14 |  10 |   -140     |   -140
              135000 |   1 |  -8 |     -8     |     -8
              140000 |  -8 |   9 |    -72     |    -72
              145000 |  11 | -10 |   -110     |   -110
              150000 |   6 |  14 |     84     |     84
              155000 |  -4 |  10 |    -40     |    -40
              160000 |  11 | -15 |   -165     |   -165
              165000 |   5 |  15 |     75     |     75
              170000 |  -5 |  -6 |     30     |     30
              175000 |  -2 | -11 |     22     |     22
              180000 | -15 |  -7 |    105     |    105
              185000 |   2 |  12 |     24     |     24
              190000 |  -1 |  15 |    -15     |    -15
              195000 |  -8 |  -9 |     72     |     72
              200000 |  -1 |  -4 |      4     |      4
              205000 |  -5 |   9 |    -45     |    -45
              210000 |   9 | -16 |   -144     |   -144
              215000 |  -9 | -15 |    135     |    135
              220000 | -10 |  12 |   -120     |   -120
              225000 |   2 |   8 |     16     |     16
              230000 |  -9 |  -3 |     27     |     27
              235000 | -14 |  -2 |     28     |     28
              240000 |  13 |  -7 |    -91     |    -91
              245000 |  -1 | -13 |     13     |     13
              250000 |   5 |  -8 |    -40     |    -40
              255000 |  -5 |   9 |    -45     |    -45
              260000 |  -1 |  10 |    -10     |    -10
              265000 |  -8 |   6 |    -48     |    -48
              270000 |  14 |  -4 |    -56     |    -56
              275000 |  -6 |   6 |    -36     |    -36
              280000 | -13 |   3 |    -39     |    -39
              285000 |  15 | -13 |   -195     |   -195
              290000 |  -1 |   4 |     -4     |     -4
              295000 |  -9 |  11 |    -99     |    -99
              300000 |   6 |  -6 |    -36     |    -36
              305000 |   9 |  13 |    117     |    117
              310000 |  -6 |   5 |    -30     |    -30
              315000 | -11 |  -1 |     11     |     11
              320000 |  -7 |   4 |    -28     |    -28
              325000 | -16 |  10 |   -160     |   -160
              330000 |  11 |  14 |    154     |    154
              335000 |  -4 |  -6 |     24     |     24
              340000 |  -3 |   3 |     -9     |     -9
              345000 | -10 |  14 |   -140     |   -140
              350000 |   7 |  10 |     70     |     70
              355000 | -10 |  -8 |     80     |     80
              360000 |  -7 |  -8 |     56     |     56
              365000 | -12 | -13 |    156     |    156
              370000 |   4 |  -7 |    -28     |    -28
              375000 |  -5 |  13 |    -65     |    -65
              380000 |  -7 |  13 |    -91     |    -91
              385000 | -10 |  10 |   -100     |   -100
              390000 | -10 | -11 |    110     |    110
              395000 |   6 |   4 |     24     |     24
              400000 |  -9 |   9 |    -81     |    -81
              405000 | -12 |   8 |    -96     |    -96
              410000 |   8 |  13 |    104     |    104
              415000 |   7 |  14 |     98     |     98
              420000 |   8 |  -4 |    -32     |    -32
              425000 |  -3 |   9 |    -27     |    -27
              430000 |  -4 |   6 |    -24     |    -24
              435000 |  -6 |  -3 |     18     |     18
              440000 |   6 | -16 |    -96     |    -96
              445000 | -13 |  -6 |     78     |     78
              450000 |  -2 |  -6 |     12     |     12
              455000 | -11 |  -6 |     66     |     66
              460000 |  -7 |  -9 |     63     |     63
              465000 | -10 |   0 |      0     |      0
              470000 |   6 | -10 |    -60     |    -60
              475000 |  -3 |  -4 |     12     |     12
              480000 |   6 |  -8 |    -48     |    -48
              485000 |  -2 |  -5 |     10     |     10
              490000 |  15 |  -7 |   -105     |   -105
              495000 |  -6 |   1 |     -6     |     -6
              500000 |  -9 |   1 |     -9     |     -9
              505000 |   6 | -16 |    -96     |    -96
              510000 | -11 | -11 |    121     |    121
              515000 |   9 |   1 |      9     |      9
              520000 |   5 |  -8 |    -40     |    -40
              525000 |  11 | -13 |   -143     |   -143
              530000 |  12 |  10 |    120     |    120
              535000 |  14 |   8 |    112     |    112
              540000 |   9 |   1 |      9     |      9
              545000 |  14 |   6 |     84     |     84
              550000 |  -1 |  10 |    -10     |    -10
              555000 |  10 |  13 |    130     |    130
              560000 |  -2 |  -8 |     16     |     16
              565000 |  -7 |   8 |    -56     |    -56
              570000 |  10 | -13 |   -130     |   -130
              575000 |  11 |   7 |     77     |     77
              580000 | -10 |  -6 |     60     |     60
              585000 |   4 |  -7 |    -28     |    -28
              590000 | -14 | -12 |    168     |    168
              595000 |  -1 |   6 |     -6     |     -6
              600000 |  -6 | -14 |     84     |     84
              605000 | -14 |  -3 |     42     |     42
              610000 |   4 |   4 |     16     |     16
              615000 |  10 |   9 |     90     |     90
              620000 |   1 |  14 |     14     |     14
              625000 |  -5 |  11 |    -55     |    -55
              630000 |  15 |   9 |    135     |    135
              635000 | -10 | -11 |    110     |    110
              640000 |  15 |  11 |    165     |    165
              645000 |   8 |  14 |    112     |    112
              650000 |  -5 | -14 |     70     |     70
              655000 |   8 |  13 |    104     |    104
              660000 |  11 |   2 |     22     |     22
              665000 |  -2 |  13 |    -26     |    -26
              670000 |  12 |  -8 |    -96     |    -96
              675000 | -15 |   6 |    -90     |    -90
              680000 |   1 |  -5 |     -5     |     -5
              685000 |  -8 | -13 |    104     |    104
              690000 | -10 |  -5 |     50     |     50
              695000 |   2 |   4 |      8     |      8
              700000 | -13 |  -8 |    104     |    104
              705000 | -14 |  -8 |    112     |    112
              710000 |  -7 |   5 |    -35     |    -35
              715000 |   1 |  11 |     11     |     11
              720000 |   1 |   8 |      8     |      8
              725000 |   7 |   1 |      7     |      7
              730000 |  -1 |   4 |     -4     |     -4